…
Just run the code like this:

``` r

meta_data <- create_funder_meta_data()

meta_data
#> # A tibble: 384 × 4
#>    siteID blockID treatment plotID 
#>    <chr>  <chr>   <chr>     <chr>  
#>  1 Alrust Alr1    B         Alr1B  
#>  2 Alrust Alr1    C         Alr1C  
#>  3 Alrust Alr1    F         Alr1F  
#>  4 Alrust Alr1    FB        Alr1FB 
#>  5 Alrust Alr1    FGB       Alr1FGB
#>  6 Alrust Alr1    G         Alr1G  
#>  7 Alrust Alr1    GB        Alr1GB 
#>  8 Alrust Alr1    GF        Alr1GF 
#>  9 Alrust Alr2    B         Alr2B  
#> 10 Alrust Alr2    C         Alr2C  
#> # ℹ 374 more rows
```
…
